%YAML 1.1
%TAG !u! tag:unity3d.com,2011:
--- !u!114 &11400000
MonoBehaviour:
  m_ObjectHideFlags: 0
  m_CorrespondingSourceObject: {fileID: 0}
  m_PrefabInstance: {fileID: 0}
  m_PrefabAsset: {fileID: 0}
  m_GameObject: {fileID: 0}
  m_Enabled: 1
  m_EditorHideFlags: 0
  m_Script: {fileID: 11500000, guid: 9529ae2b2ee0d1e4d802b51d271424c3, type: 3}
  m_Name: Mele_Axe
  m_EditorClassIdentifier: 
  ItemID: Mele_Axe
  TargetInventoryName: KoalaMainInventory
  Usable: 0
  Consumable: 1
  ConsumeQuantity: 1
  Equippable: 1
  Droppable: 1
  CanMoveObject: 1
  CanSwapObject: 1
  Quantity: 1
  ItemName: Axe
  ShortDescription: Powerful Axe
  Description: Yea its just a stick with attached very sharp and heavy metal
  Icon: {fileID: 21300000, guid: ddf07c98c05ef9e4998f9fdf781e771b, type: 3}
  Prefab: {fileID: 6967758979693693026, guid: c9844742a284f6c4ba2a1e097a9b1770, type: 3}
  DropProperties:
    Shape: 0
    NormalToSpawnPlane: {x: 0, y: 1, z: 0}
    MinimumSphereRadius: 1
    MaximumSphereRadius: 2
    MinimumCubeBaseSize: {x: 1, y: 1, z: 1}
    MaximumCubeBaseSize: {x: 2, y: 2, z: 2}
    MinimumNormalAxisOffset: 0
    MaximumNormalAxisOffset: 0
    UseNormalAxisOffsetCurve: 0
    NormalOffsetCurve:
      serializedVersion: 2
      m_Curve:
      - serializedVersion: 3
        time: 0
        value: 1
        inSlope: 0
        outSlope: 0
        tangentMode: 0
        weightedMode: 0
        inWeight: 0
        outWeight: 0
      - serializedVersion: 3
        time: 1
        value: 1
        inSlope: 0
        outSlope: 0
        tangentMode: 0
        weightedMode: 0
        inWeight: 0
        outWeight: 0
      m_PreInfinity: 2
      m_PostInfinity: 2
      m_RotationOrder: 4
    NormalOffsetCurveRemapZero: 0
    NormalOffsetCurveRemapOne: 1
    InvertNormalOffsetCurve: 0
    MinimumRotation: {x: 0, y: 0, z: 0}
    MaximumRotation: {x: 0, y: 0, z: 0}
    MinimumScale: {x: 1, y: 1, z: 1}
    MaximumScale: {x: 1, y: 1, z: 1}
  MaximumStack: 1
  ItemClass: 2
  TargetEquipmentInventoryName: KoalaWeaponInventory
  EquippedSound: {fileID: 0}
  UsedSound: {fileID: 0}
  MovedSound: {fileID: 0}
  DroppedSound: {fileID: 0}
  UseDefaultSoundsIfNull: 1
  EquippableWeapon: {fileID: 6999698955765571596, guid: c9844742a284f6c4ba2a1e097a9b1770,
    type: 3}
  AutoEquipMode: 2
  HandleWeaponID: 1
