%YAML 1.1
%TAG !u! tag:unity3d.com,2011:
--- !u!114 &11400000
MonoBehaviour:
  m_ObjectHideFlags: 0
  m_CorrespondingSourceObject: {fileID: 0}
  m_PrefabInstance: {fileID: 0}
  m_PrefabAsset: {fileID: 0}
  m_GameObject: {fileID: 0}
  m_Enabled: 1
  m_EditorHideFlags: 0
  m_Script: {fileID: 11500000, guid: 9fac9bd89dcafc049b19f543ccf8fd57, type: 3}
  m_Name: PistolAmmo
  m_EditorClassIdentifier: 
  ItemID: PistolAmmo
  TargetInventoryName: KoalaMainInventory
  Usable: 1
  Consumable: 1
  ConsumeQuantity: 1
  Equippable: 0
  Droppable: 1
  CanMoveObject: 1
  CanSwapObject: 1
  Quantity: 1
  ItemName: Pistol Ammo
  ShortDescription: Pistol Ammo
  Description: A metal projectile for firing from a pistol typically cylindrical
    and pointed, and sometimes containing an explosive.
  Icon: {fileID: 21300000, guid: 980e054cf7acdab40acdbaef88260d3f, type: 3}
  Prefab: {fileID: 752750280160083504, guid: 2c2da98b0e35a2c4fb6b90fc5d6bd2df, type: 3}
  DropProperties:
    Shape: 0
    NormalToSpawnPlane: {x: 0, y: 1, z: 0}
    MinimumSphereRadius: 1
    MaximumSphereRadius: 2
    MinimumCubeBaseSize: {x: 1, y: 1, z: 1}
    MaximumCubeBaseSize: {x: 2, y: 2, z: 2}
    MinimumNormalAxisOffset: 0
    MaximumNormalAxisOffset: 0
    UseNormalAxisOffsetCurve: 0
    NormalOffsetCurve:
      serializedVersion: 2
      m_Curve:
      - serializedVersion: 3
        time: 0
        value: 1
        inSlope: 0
        outSlope: 0
        tangentMode: 0
        weightedMode: 0
        inWeight: 0
        outWeight: 0
      - serializedVersion: 3
        time: 1
        value: 1
        inSlope: 0
        outSlope: 0
        tangentMode: 0
        weightedMode: 0
        inWeight: 0
        outWeight: 0
      m_PreInfinity: 2
      m_PostInfinity: 2
      m_RotationOrder: 4
    NormalOffsetCurveRemapZero: 0
    NormalOffsetCurveRemapOne: 1
    InvertNormalOffsetCurve: 0
    MinimumRotation: {x: 0, y: 0, z: 0}
    MaximumRotation: {x: 0, y: 0, z: 0}
    MinimumScale: {x: 1, y: 1, z: 1}
    MaximumScale: {x: 1, y: 1, z: 1}
  MaximumStack: 30
  ItemClass: 3
  TargetEquipmentInventoryName: 
  EquippedSound: {fileID: 0}
  UsedSound: {fileID: 0}
  MovedSound: {fileID: 0}
  DroppedSound: {fileID: 0}
  UseDefaultSoundsIfNull: 0
